"CNTR_CODE","CNTR_NAME","CNTR_CODE_iso2","CNTR_CODE_iso3","CNTR_CODE_Eurostat","NUTS2","NAME","AGR","MIN","MFG","EGW","CNS","TRD","OTP","WTP","CMN","OFI","OBS","REA","PUB","OSG"
"AL","Albania","AL","ALB","AL","AL01","Veri",0,0,0,0,0,0,0,0,0,0,0,0,0,0
"AL","Albania","AL","ALB","AL","AL02","Qender",0,0,0,0,0,0,0,0,0,0,0,0,0,0
"AL","Albania","AL","ALB","AL","AL03","Jug",0,0,0,0,0,0,0,0,0,0,0,0,0,0
"AT","Austria","AT","AUT","AT","AT21","Kärnten",0,0,0,0,0,0,0,0,0,0,0,0,0,0
"AT","Austria","AT","AUT","AT","AT22","Steiermark",0,0,0,0,0,0,0,0,0,0,0,0,0,0
"AT","Austria","AT","AUT","AT","AT32","Salzburg",0,0,0,0,0,0,0,0,0,0,0,0,0,0
"AT","Austria","AT","AUT","AT","AT33","Tirol",0,0,0,0,0,0,0,0,0,0,0,0,0,0
"AT","Austria","AT","AUT","AT","AT34","Vorarlberg",0,0,0,0,0,0,0,0,0,0,0,0,0,0
"AT","Austria","AT","AUT","AT","AT31","Oberösterreich",0,0,0,0,0,0,0,0,0,0,0,0,0,0
"AT","Austria","AT","AUT","AT","AT11","Burgenland",0,0,0,0,0,0,0,0,0,0,0,0,0,0
"AT","Austria","AT","AUT","AT","AT12","Niederösterreich",0,0,0,0,0,0,0,0,0,0,0,0,0,0
"AT","Austria","AT","AUT","AT","AT13","Wien",0,0,0,0,0,0,0,0,0,0,0,0,0,0
"BE","Belgium","BE","BEL","BE","BE10","Région de Bruxelles-Capitale/ Brussels Hoofdstedelijk Gewest",0,0,0,0,0,0,0,0,0,0,0,0,0,0
"BE","Belgium","BE","BEL","BE","BE21","Prov. Antwerpen",0,0,0,0,0,0,0,0,0,0,0,0,0,0
"BE","Belgium","BE","BEL","BE","BE22","Prov. Limburg (BE)",0,0,0,0,0,0,0,0,0,0,0,0,0,0
"BE","Belgium","BE","BEL","BE","BE23","Prov. Oost-Vlaanderen",0,0,0,0,0,0,0,0,0,0,0,0,0,0
"BE","Belgium","BE","BEL","BE","BE33","Prov. Liège",0,0,0,0,0,0,0,0,0,0,0,0,0,0
"BE","Belgium","BE","BEL","BE","BE34","Prov. Luxembourg (BE)",0,0,0,0,0,0,0,0,0,0,0,0,0,0
"BE","Belgium","BE","BEL","BE","BE35","Prov. Namur",0,0,0,0,0,0,0,0,0,0,0,0,0,0
"BE","Belgium","BE","BEL","BE","BE31","Prov. Brabant Wallon",0,0,0,0,0,0,0,0,0,0,0,0,0,0
"BE","Belgium","BE","BEL","BE","BE32","Prov. Hainaut",0,0,0,0,0,0,0,0,0,0,0,0,0,0
"BE","Belgium","BE","BEL","BE","BE24","Prov. Vlaams-Brabant",0,0,0,0,0,0,0,0,0,0,0,0,0,0
"BE","Belgium","BE","BEL","BE","BE25","Prov. West-Vlaanderen",0,0,0,0,0,0,0,0,0,0,0,0,0,0
"BG","Bulgaria","BG","BGR","BG","BG31","Северозападен",8.509336275321e-05,4.73735687722739e-06,4.30019889087763e-05,0.000844264020650177,0.00107416767110525,0.00200612840013293,5.49467083350287e-05,0.00200612840013291,0.00162678231681157,0.00114481691904398,0.00122379474393782,0.0010282524679925,0.00122379474393782,0.00122379474393782
"BG","Bulgaria","BG","BGR","BG","BG32","Северен централен",0.00310028261583176,0.000215714612848162,0.00132718678291946,0.0101808790145232,0.0130188634768452,0.0212973440756672,0.00151338828540188,0.0212973440756673,0.0180189020367766,0.013032090412264,0.0143202810109163,0.0130099317701909,0.0143202810109163,0.0143202810109164
"BG","Bulgaria","BG","BGR","BG","BG33","Североизточен",0.00111579692497368,7.61634519043845e-05,0.000567692522895132,0.00531839456536614,0.00706000534940524,0.0118609496137866,0.000566403214606364,0.0118609496137866,0.00983548585084263,0.00700257765272021,0.00760599854920479,0.00710541197957359,0.00760599854920483,0.00760599854920477
"BG","Bulgaria","BG","BGR","BG","BG34","Югоизточен",0.000298636286139394,1.70721711784614e-05,0.000148011986598531,0.00164286242994395,0.00230670476244458,0.00386431589026697,0.000137293509698641,0.00386431589026696,0.00314493517016591,0.00221711244131558,0.00237635498896271,0.00236663390709917,0.00237635498896272,0.00237635498896273
"BG","Bulgaria","BG","BGR","BG","BG41","Югозападен",0,0,0,0,0,0,0,0,0,0,0,0,0,0
"BG","Bulgaria","BG","BGR","BG","BG42","Южен централен",5.82039657542858e-06,2.55082778262133e-07,2.79737948727217e-06,6.93631465581969e-05,9.44688809800222e-05,0.000178243574522086,3.10353350091674e-06,0.000178243574522086,0.000140204171349683,9.76127762049238e-05,0.000101961572243964,9.2345181096092e-05,0.000101961572243964,0.000101961572243964
"CH","Switzerland","CH","CHE","CH","CH05","Ostschweiz",0,0,0,0,0,0,0,0,0,0,0,0,0,0
"CH","Switzerland","CH","CHE","CH","CH06","Zentralschweiz",0,0,0,0,0,0,0,0,0,0,0,0,0,0
"CH","Switzerland","CH","CHE","CH","CH07","Ticino",0,0,0,0,0,0,0,0,0,0,0,0,0,0
"CH","Switzerland","CH","CHE","CH","CH03","Nordwestschweiz",0,0,0,0,0,0,0,0,0,0,0,0,0,0
"CH","Switzerland","CH","CHE","CH","CH04","Zürich",0,0,0,0,0,0,0,0,0,0,0,0,0,0
"CH","Switzerland","CH","CHE","CH","CH01","Région lémanique",0,0,0,0,0,0,0,0,0,0,0,0,0,0
"CH","Switzerland","CH","CHE","CH","CH02","Espace Mittelland",0,0,0,0,0,0,0,0,0,0,0,0,0,0
"CY","Cyprus","CY","CYP","CY","CY00","Κύπρος",0,0,0,0,0,0,0,0,0,0,0,0,0,0
"CZ","Czechia","CZ","CZE","CZ","CZ01","Praha",0,0,0,0,0,0,0,0,0,0,0,0,0,0
"CZ","Czechia","CZ","CZE","CZ","CZ02","Střední Čechy",0,0,0,0,0,0,0,0,0,0,0,0,0,0
"CZ","Czechia","CZ","CZE","CZ","CZ03","Jihozápad",0,0,0,0,0,0,0,0,0,0,0,0,0,0
"CZ","Czechia","CZ","CZE","CZ","CZ04","Severozápad",0,0,0,0,0,0,0,0,0,0,0,0,0,0
"CZ","Czechia","CZ","CZE","CZ","CZ05","Severovýchod",0,0,0,0,0,0,0,0,0,0,0,0,0,0
"CZ","Czechia","CZ","CZE","CZ","CZ08","Moravskoslezsko",0,0,0,0,0,0,0,0,0,0,0,0,0,0
"CZ","Czechia","CZ","CZE","CZ","CZ06","Jihovýchod",0,0,0,0,0,0,0,0,0,0,0,0,0,0
"CZ","Czechia","CZ","CZE","CZ","CZ07","Střední Morava",0,0,0,0,0,0,0,0,0,0,0,0,0,0
"DE","Germany","DE","DEU","DE","DE13","Freiburg",0,0,0,0,0,0,0,0,0,0,0,0,0,0
"DE","Germany","DE","DEU","DE","DE12","Karlsruhe",0,0,0,0,0,0,0,0,0,0,0,0,0,0
"DE","Germany","DE","DEU","DE","DE23","Oberpfalz",0,0,0,0,0,0,0,0,0,0,0,0,0,0
"DE","Germany","DE","DEU","DE","DE14","Tübingen",0,0,0,0,0,0,0,0,0,0,0,0,0,0
"DE","Germany","DE","DEU","DE","DE21","Oberbayern",0,0,0,0,0,0,0,0,0,0,0,0,0,0
"DE","Germany","DE","DEU","DE","DE22","Niederbayern",0,0,0,0,0,0,0,0,0,0,0,0,0,0
"DE","Germany","DE","DEU","DE","DE27","Schwaben",0,0,0,0,0,0,0,0,0,0,0,0,0,0
"DE","Germany","DE","DEU","DE","DE24","Oberfranken",0,0,0,0,0,0,0,0,0,0,0,0,0,0
"DE","Germany","DE","DEU","DE","DE25","Mittelfranken",0,0,0,0,0,0,0,0,0,0,0,0,0,0
"DE","Germany","DE","DEU","DE","DE26","Unterfranken",0,0,0,0,0,0,0,0,0,0,0,0,0,0
"DE","Germany","DE","DEU","DE","DE60","Hamburg",0,0,0,0,0,0,0,0,0,0,0,0,0,0
"DE","Germany","DE","DEU","DE","DE71","Darmstadt",0,0,0,0,0,0,0,0,0,0,0,0,0,0
"DE","Germany","DE","DEU","DE","DE72","Gießen",0,0,0,0,0,0,0,0,0,0,0,0,0,0
"DE","Germany","DE","DEU","DE","DE73","Kassel",0,0,0,0,0,0,0,0,0,0,0,0,0,0
"DE","Germany","DE","DEU","DE","DE80","Mecklenburg-Vorpommern",0,0,0,0,0,0,0,0,0,0,0,0,0,0
"DE","Germany","DE","DEU","DE","DE91","Braunschweig",0,0,0,0,0,0,0,0,0,0,0,0,0,0
"DE","Germany","DE","DEU","DE","DE92","Hannover",0,0,0,0,0,0,0,0,0,0,0,0,0,0
"DE","Germany","DE","DEU","DE","DE93","Lüneburg",0,0,0,0,0,0,0,0,0,0,0,0,0,0
"DE","Germany","DE","DEU","DE","DE94","Weser-Ems",0,0,0,0,0,0,0,0,0,0,0,0,0,0
"DE","Germany","DE","DEU","DE","DEA1","Düsseldorf",0,0,0,0,0,0,0,0,0,0,0,0,0,0
"DE","Germany","DE","DEU","DE","DE30","Berlin",0,0,0,0,0,0,0,0,0,0,0,0,0,0
"DE","Germany","DE","DEU","DE","DE40","Brandenburg",0,0,0,0,0,0,0,0,0,0,0,0,0,0
"DE","Germany","DE","DEU","DE","DE50","Bremen",0,0,0,0,0,0,0,0,0,0,0,0,0,0
"DE","Germany","DE","DEU","DE","DEA5","Arnsberg",0,0,0,0,0,0,0,0,0,0,0,0,0,0
"DE","Germany","DE","DEU","DE","DEB1","Koblenz",0,0,0,0,0,0,0,0,0,0,0,0,0,0
"DE","Germany","DE","DEU","DE","DEB2","Trier",0,0,0,0,0,0,0,0,0,0,0,0,0,0
"DE","Germany","DE","DEU","DE","DEB3","Rheinhessen-Pfalz",0,0,0,0,0,0,0,0,0,0,0,0,0,0
"DE","Germany","DE","DEU","DE","DEC0","Saarland",0,0,0,0,0,0,0,0,0,0,0,0,0,0
"DE","Germany","DE","DEU","DE","DED2","Dresden",0,0,0,0,0,0,0,0,0,0,0,0,0,0
"DE","Germany","DE","DEU","DE","DED4","Chemnitz",0,0,0,0,0,0,0,0,0,0,0,0,0,0
"DE","Germany","DE","DEU","DE","DED5","Leipzig",0,0,0,0,0,0,0,0,0,0,0,0,0,0
"DE","Germany","DE","DEU","DE","DEE0","Sachsen-Anhalt",0,0,0,0,0,0,0,0,0,0,0,0,0,0
"DE","Germany","DE","DEU","DE","DEF0","Schleswig-Holstein",0,0,0,0,0,0,0,0,0,0,0,0,0,0
"DE","Germany","DE","DEU","DE","DEA2","Köln",0,0,0,0,0,0,0,0,0,0,0,0,0,0
"DE","Germany","DE","DEU","DE","DEA3","Münster",0,0,0,0,0,0,0,0,0,0,0,0,0,0
"DE","Germany","DE","DEU","DE","DEA4","Detmold",0,0,0,0,0,0,0,0,0,0,0,0,0,0
"DE","Germany","DE","DEU","DE","DE11","Stuttgart",0,0,0,0,0,0,0,0,0,0,0,0,0,0
"DE","Germany","DE","DEU","DE","DEG0","Thüringen",0,0,0,0,0,0,0,0,0,0,0,0,0,0
"DK","Denmark","DK","DNK","DK","DK04","Midtjylland",0,0,0,0,0,0,0,0,0,0,0,0,0,0
"DK","Denmark","DK","DNK","DK","DK05","Nordjylland",0,0,0,0,0,0,0,0,0,0,0,0,0,0
"DK","Denmark","DK","DNK","DK","DK01","Hovedstaden",0,0,0,0,0,0,0,0,0,0,0,0,0,0
"DK","Denmark","DK","DNK","DK","DK02","Sjælland",0,0,0,0,0,0,0,0,0,0,0,0,0,0
"DK","Denmark","DK","DNK","DK","DK03","Syddanmark",0,0,0,0,0,0,0,0,0,0,0,0,0,0
"EE","Estonia","EE","EST","EE","EE00","Eesti",0,0,0,0,0,0,0,0,0,0,0,0,0,0
"EL","Greece","GR","GRC","EL","EL30","Aττική",0,0,0,0,0,0,0,0,0,0,0,0,0,0
"EL","Greece","GR","GRC","EL","EL41","Βόρειο Αιγαίο",0,0,0,0,0,0,0,0,0,0,0,0,0,0
"EL","Greece","GR","GRC","EL","EL42","Νότιο Αιγαίο",0,0,0,0,0,0,0,0,0,0,0,0,0,0
"EL","Greece","GR","GRC","EL","EL43","Κρήτη",0,0,0,0,0,0,0,0,0,0,0,0,0,0
"EL","Greece","GR","GRC","EL","EL51","Aνατολική Μακεδονία, Θράκη",0,0,0,0,0,0,0,0,0,0,0,0,0,0
"EL","Greece","GR","GRC","EL","EL52","Κεντρική Μακεδονία",0,0,0,0,0,0,0,0,0,0,0,0,0,0
"EL","Greece","GR","GRC","EL","EL53","Δυτική Μακεδονία",0,0,0,0,0,0,0,0,0,0,0,0,0,0
"EL","Greece","GR","GRC","EL","EL64","Στερεά Ελλάδα",0,0,0,0,0,0,0,0,0,0,0,0,0,0
"EL","Greece","GR","GRC","EL","EL65","Πελοπόννησος",0,0,0,0,0,0,0,0,0,0,0,0,0,0
"EL","Greece","GR","GRC","EL","EL61","Θεσσαλία",0,0,0,0,0,0,0,0,0,0,0,0,0,0
"EL","Greece","GR","GRC","EL","EL62","Ιόνια Νησιά",0,0,0,0,0,0,0,0,0,0,0,0,0,0
"EL","Greece","GR","GRC","EL","EL63","Δυτική Ελλάδα",0,0,0,0,0,0,0,0,0,0,0,0,0,0
"EL","Greece","GR","GRC","EL","EL54","Ήπειρος",0,0,0,0,0,0,0,0,0,0,0,0,0,0
"ES","Spain","ES","ESP","ES","ES11","Galicia",0,0,0,0,0,0,0,0,0,0,0,0,0,0
"ES","Spain","ES","ESP","ES","ES12","Principado de Asturias",0,0,0,0,0,0,0,0,0,0,0,0,0,0
"ES","Spain","ES","ESP","ES","ES13","Cantabria",0,0,0,0,0,0,0,0,0,0,0,0,0,0
"ES","Spain","ES","ESP","ES","ES21","País Vasco",0,0,0,0,0,0,0,0,0,0,0,0,0,0
"ES","Spain","ES","ESP","ES","ES22","Comunidad Foral de Navarra",0,0,0,0,0,0,0,0,0,0,0,0,0,0
"ES","Spain","ES","ESP","ES","ES23","La Rioja",0,0,0,0,0,0,0,0,0,0,0,0,0,0
"ES","Spain","ES","ESP","ES","ES24","Aragón",0,0,0,0,0,0,0,0,0,0,0,0,0,0
"ES","Spain","ES","ESP","ES","ES51","Cataluña",0,0,0,0,0,0,0,0,0,0,0,0,0,0
"ES","Spain","ES","ESP","ES","ES52","Comunitat Valenciana",0,0,0,0,0,0,0,0,0,0,0,0,0,0
"ES","Spain","ES","ESP","ES","ES53","Illes Balears",0,0,0,0,0,0,0,0,0,0,0,0,0,0
"ES","Spain","ES","ESP","ES","ES61","Andalucía",0,0,0,0,0,0,0,0,0,0,0,0,0,0
"ES","Spain","ES","ESP","ES","ES62","Región de Murcia",0,0,0,0,0,0,0,0,0,0,0,0,0,0
"ES","Spain","ES","ESP","ES","ES63","Ciudad de Ceuta",0,0,0,0,0,0,0,0,0,0,0,0,0,0
"ES","Spain","ES","ESP","ES","ES64","Ciudad de Melilla",0,0,0,0,0,0,0,0,0,0,0,0,0,0
"ES","Spain","ES","ESP","ES","ES70","Canarias",0,0,0,0,0,0,0,0,0,0,0,0,0,0
"ES","Spain","ES","ESP","ES","ES43","Extremadura",0,0,0,0,0,0,0,0,0,0,0,0,0,0
"ES","Spain","ES","ESP","ES","ES30","Comunidad de Madrid",0,0,0,0,0,0,0,0,0,0,0,0,0,0
"ES","Spain","ES","ESP","ES","ES41","Castilla y León",0,0,0,0,0,0,0,0,0,0,0,0,0,0
"ES","Spain","ES","ESP","ES","ES42","Castilla-La Mancha",0,0,0,0,0,0,0,0,0,0,0,0,0,0
"FI","Finland","FI","FIN","FI","FI19","Länsi-Suomi",0,0,0,0,0,0,0,0,0,0,0,0,0,0
"FI","Finland","FI","FIN","FI","FI20","Åland",0,0,0,0,0,0,0,0,0,0,0,0,0,0
"FI","Finland","FI","FIN","FI","FI1B","Helsinki-Uusimaa",0,0,0,0,0,0,0,0,0,0,0,0,0,0
"FI","Finland","FI","FIN","FI","FI1C","Etelä-Suomi",0,0,0,0,0,0,0,0,0,0,0,0,0,0
"FI","Finland","FI","FIN","FI","FI1D","Pohjois- ja Itä-Suomi",0,0,0,0,0,0,0,0,0,0,0,0,0,0
"FR","France","FR","FRA","FR","FRB0","Centre — Val de Loire",0,0,0,0,0,0,0,0,0,0,0,0,0,0
"FR","France","FR","FRA","FR","FRD2","Haute-Normandie",0,0,0,0,0,0,0,0,0,0,0,0,0,0
"FR","France","FR","FRA","FR","FRC1","Bourgogne",0,0,0,0,0,0,0,0,0,0,0,0,0,0
"FR","France","FR","FRA","FR","FRC2","Franche-Comté",0,0,0,0,0,0,0,0,0,0,0,0,0,0
"FR","France","FR","FRA","FR","FRD1","Basse-Normandie",0,0,0,0,0,0,0,0,0,0,0,0,0,0
"FR","France","FR","FRA","FR","FRF2","Champagne-Ardenne",0,0,0,0,0,0,0,0,0,0,0,0,0,0
"FR","France","FR","FRA","FR","FRE1","Nord-Pas de Calais",0,0,0,0,0,0,0,0,0,0,0,0,0,0
"FR","France","FR","FRA","FR","FRE2","Picardie",0,0,0,0,0,0,0,0,0,0,0,0,0,0
"FR","France","FR","FRA","FR","FRF1","Alsace",0,0,0,0,0,0,0,0,0,0,0,0,0,0
"FR","France","FR","FRA","FR","FR10","Ile-de-France",0,0,0,0,0,0,0,0,0,0,0,0,0,0
"FR","France","FR","FRA","FR","FRI2","Limousin",0,0,0,0,0,0,0,0,0,0,0,0,0,0
"FR","France","FR","FRA","FR","FRI3","Poitou-Charentes",0,0,0,0,0,0,0,0,0,0,0,0,0,0
"FR","France","FR","FRA","FR","FRJ1","Languedoc-Roussillon",0,0,0,0,0,0,0,0,0,0,0,0,0,0
"FR","France","FR","FRA","FR","FRJ2","Midi-Pyrénées",0,0,0,0,0,0,0,0,0,0,0,0,0,0
"FR","France","FR","FRA","FR","FRK1","Auvergne",0,0,0,0,0,0,0,0,0,0,0,0,0,0
"FR","France","FR","FRA","FR","FRK2","Rhône-Alpes",0,0,0,0,0,0,0,0,0,0,0,0,0,0
"FR","France","FR","FRA","FR","FRL0","Provence-Alpes-Côte d’Azur",0,0,0,0,0,0,0,0,0,0,0,0,0,0
"FR","France","FR","FRA","FR","FRM0","Corse",0,0,0,0,0,0,0,0,0,0,0,0,0,0
"FR","France","FR","FRA","FR","FRI1","Aquitaine",0,0,0,0,0,0,0,0,0,0,0,0,0,0
"FR","France","FR","FRA","FR","FRF3","Lorraine",0,0,0,0,0,0,0,0,0,0,0,0,0,0
"FR","France","FR","FRA","FR","FRG0","Pays de la Loire",0,0,0,0,0,0,0,0,0,0,0,0,0,0
"FR","France","FR","FRA","FR","FRH0","Bretagne",0,0,0,0,0,0,0,0,0,0,0,0,0,0
"HR","Croatia","HR","HRV","HR","HR02","Panonska Hrvatska",0,0,0,0,0,0,0,0,0,0,0,0,0,0
"HR","Croatia","HR","HRV","HR","HR03","Jadranska Hrvatska",0,0,0,0,0,0,0,0,0,0,0,0,0,0
"HR","Croatia","HR","HRV","HR","HR05","Grad Zagreb",0,0,0,0,0,0,0,0,0,0,0,0,0,0
"HR","Croatia","HR","HRV","HR","HR06","Sjeverna Hrvatska",0,0,0,0,0,0,0,0,0,0,0,0,0,0
"HU","Hungary","HU","HUN","HU","HU12","Pest",0,0,0,0,0,0,0,0,0,0,0,0,0,0
"HU","Hungary","HU","HUN","HU","HU31","Észak-Magyarország",0,0,0,0,0,0,0,0,0,0,0,0,0,0
"HU","Hungary","HU","HUN","HU","HU21","Közép-Dunántúl",0,0,0,0,0,0,0,0,0,0,0,0,0,0
"HU","Hungary","HU","HUN","HU","HU22","Nyugat-Dunántúl",0,0,0,0,0,0,0,0,0,0,0,0,0,0
"HU","Hungary","HU","HUN","HU","HU23","Dél-Dunántúl",0,0,0,0,0,0,0,0,0,0,0,0,0,0
"HU","Hungary","HU","HUN","HU","HU11","Budapest",0,0,0,0,0,0,0,0,0,0,0,0,0,0
"HU","Hungary","HU","HUN","HU","HU32","Észak-Alföld",0,0,0,0,0,0,0,0,0,0,0,0,0,0
"HU","Hungary","HU","HUN","HU","HU33","Dél-Alföld",0,0,0,0,0,0,0,0,0,0,0,0,0,0
"IE","Ireland","IE","IRL","IE","IE04","Northern and Western",0,0,0,0,0,0,0,0,0,0,0,0,0,0
"IE","Ireland","IE","IRL","IE","IE05","Southern",0,0,0,0,0,0,0,0,0,0,0,0,0,0
"IE","Ireland","IE","IRL","IE","IE06","Eastern and Midland",0,0,0,0,0,0,0,0,0,0,0,0,0,0
"IS","Iceland","IS","ISL","IS","IS00","Ísland",0,0,0,0,0,0,0,0,0,0,0,0,0,0
"IT","Italy","IT","ITA","IT","ITC3","Liguria",0,0,0,0,0,0,0,0,0,0,0,0,0,0
"IT","Italy","IT","ITA","IT","ITC4","Lombardia",0,0,0,0,0,0,0,0,0,0,0,0,0,0
"IT","Italy","IT","ITA","IT","ITF3","Campania",0,0,0,0,0,0,0,0,0,0,0,0,0,0
"IT","Italy","IT","ITA","IT","ITF4","Puglia",0,0,0,0,0,0,0,0,0,0,0,0,0,0
"IT","Italy","IT","ITA","IT","ITF1","Abruzzo",0,0,0,0,0,0,0,0,0,0,0,0,0,0
"IT","Italy","IT","ITA","IT","ITF2","Molise",0,0,0,0,0,0,0,0,0,0,0,0,0,0
"IT","Italy","IT","ITA","IT","ITG1","Sicilia",0,0,0,0,0,0,0,0,0,0,0,0,0,0
"IT","Italy","IT","ITA","IT","ITG2","Sardegna",0,0,0,0,0,0,0,0,0,0,0,0,0,0
"IT","Italy","IT","ITA","IT","ITF5","Basilicata",0,0,0,0,0,0,0,0,0,0,0,0,0,0
"IT","Italy","IT","ITA","IT","ITF6","Calabria",0,0,0,0,0,0,0,0,0,0,0,0,0,0
"IT","Italy","IT","ITA","IT","ITH3","Veneto",0,0,0,0,0,0,0,0,0,0,0,0,0,0
"IT","Italy","IT","ITA","IT","ITH4","Friuli-Venezia Giulia",0,0,0,0,0,0,0,0,0,0,0,0,0,0
"IT","Italy","IT","ITA","IT","ITH5","Emilia-Romagna",0,0,0,0,0,0,0,0,0,0,0,0,0,0
"IT","Italy","IT","ITA","IT","ITI1","Toscana",0,0,0,0,0,0,0,0,0,0,0,0,0,0
"IT","Italy","IT","ITA","IT","ITI2","Umbria",0,0,0,0,0,0,0,0,0,0,0,0,0,0
"IT","Italy","IT","ITA","IT","ITI3","Marche",0,0,0,0,0,0,0,0,0,0,0,0,0,0
"IT","Italy","IT","ITA","IT","ITI4","Lazio",0,0,0,0,0,0,0,0,0,0,0,0,0,0
"IT","Italy","IT","ITA","IT","ITH1","Provincia Autonoma di Bolzano/Bozen",0,0,0,0,0,0,0,0,0,0,0,0,0,0
"IT","Italy","IT","ITA","IT","ITH2","Provincia Autonoma di Trento",0,0,0,0,0,0,0,0,0,0,0,0,0,0
"IT","Italy","IT","ITA","IT","ITC1","Piemonte",0,0,0,0,0,0,0,0,0,0,0,0,0,0
"IT","Italy","IT","ITA","IT","ITC2","Valle d’Aosta/Vallée d’Aoste",0,0,0,0,0,0,0,0,0,0,0,0,0,0
"LT","Lithuania","LT","LTU","LT","LT01","Sostinės regionas",0,0,0,0,0,0,0,0,0,0,0,0,0,0
"LT","Lithuania","LT","LTU","LT","LT02","Vidurio ir vakarų Lietuvos regionas",0,0,0,0,0,0,0,0,0,0,0,0,0,0
"LU","Luxembourg","LU","LUX","LU","LU00","Luxembourg",0,0,0,0,0,0,0,0,0,0,0,0,0,0
"LV","Latvia","LV","LVA","LV","LV00","Latvija",0,0,0,0,0,0,0,0,0,0,0,0,0,0
"ME","Montenegro","ME","MNE","ME","ME00","Црна Гора",0,0,0,0,0,0,0,0,0,0,0,0,0,0
"MK","North Macedonia","MK","MKD","MK","MK00","Северна Македонија",0,0,0,0,0,0,0,0,0,0,0,0,0,0
"MT","Malta","MT","MLT","MT","MT00","Malta",0,0,0,0,0,0,0,0,0,0,0,0,0,0
"NL","Netherlands (the)","NL","NLD","NL","NL12","Friesland (NL)",0,0,0,0,0,0,0,0,0,0,0,0,0,0
"NL","Netherlands (the)","NL","NLD","NL","NL23","Flevoland",0,0,0,0,0,0,0,0,0,0,0,0,0,0
"NL","Netherlands (the)","NL","NLD","NL","NL13","Drenthe",0,0,0,0,0,0,0,0,0,0,0,0,0,0
"NL","Netherlands (the)","NL","NLD","NL","NL21","Overijssel",0,0,0,0,0,0,0,0,0,0,0,0,0,0
"NL","Netherlands (the)","NL","NLD","NL","NL22","Gelderland",0,0,0,0,0,0,0,0,0,0,0,0,0,0
"NL","Netherlands (the)","NL","NLD","NL","NL34","Zeeland",0,0,0,0,0,0,0,0,0,0,0,0,0,0
"NL","Netherlands (the)","NL","NLD","NL","NL31","Utrecht",0,0,0,0,0,0,0,0,0,0,0,0,0,0
"NL","Netherlands (the)","NL","NLD","NL","NL32","Noord-Holland",0,0,0,0,0,0,0,0,0,0,0,0,0,0
"NL","Netherlands (the)","NL","NLD","NL","NL33","Zuid-Holland",0,0,0,0,0,0,0,0,0,0,0,0,0,0
"NL","Netherlands (the)","NL","NLD","NL","NL11","Groningen",0,0,0,0,0,0,0,0,0,0,0,0,0,0
"NL","Netherlands (the)","NL","NLD","NL","NL41","Noord-Brabant",0,0,0,0,0,0,0,0,0,0,0,0,0,0
"NL","Netherlands (the)","NL","NLD","NL","NL42","Limburg (NL)",0,0,0,0,0,0,0,0,0,0,0,0,0,0
"NO","Norway","NO","NOR","NO","NO07","Nord-Norge",0,0,0,0,0,0,0,0,0,0,0,0,0,0
"NO","Norway","NO","NOR","NO","NO08","Oslo og Viken",0,0,0,0,0,0,0,0,0,0,0,0,0,0
"NO","Norway","NO","NOR","NO","NO02","Innlandet",0,0,0,0,0,0,0,0,0,0,0,0,0,0
"NO","Norway","NO","NOR","NO","NO06","Trøndelag",0,0,0,0,0,0,0,0,0,0,0,0,0,0
"NO","Norway","NO","NOR","NO","NO09","Agder og Sør-Østlandet",0,0,0,0,0,0,0,0,0,0,0,0,0,0
"NO","Norway","NO","NOR","NO","NO0A","Vestlandet",0,0,0,0,0,0,0,0,0,0,0,0,0,0
"PL","Poland","PL","POL","PL","PL21","Małopolskie",0,0,0,0,0,0,0,0,0,0,0,0,0,0
"PL","Poland","PL","POL","PL","PL22","Śląskie",0,0,0,0,0,0,0,0,0,0,0,0,0,0
"PL","Poland","PL","POL","PL","PL41","Wielkopolskie",0,0,0,0,0,0,0,0,0,0,0,0,0,0
"PL","Poland","PL","POL","PL","PL42","Zachodniopomorskie",0,0,0,0,0,0,0,0,0,0,0,0,0,0
"PL","Poland","PL","POL","PL","PL43","Lubuskie",0,0,0,0,0,0,0,0,0,0,0,0,0,0
"PL","Poland","PL","POL","PL","PL51","Dolnośląskie",0,0,0,0,0,0,0,0,0,0,0,0,0,0
"PL","Poland","PL","POL","PL","PL71","Łódzkie",0,0,0,0,0,0,0,0,0,0,0,0,0,0
"PL","Poland","PL","POL","PL","PL72","Świętokrzyskie",0,0,0,0,0,0,0,0,0,0,0,0,0,0
"PL","Poland","PL","POL","PL","PL81","Lubelskie",0,0,0,0,0,0,0,0,0,0,0,0,0,0
"PL","Poland","PL","POL","PL","PL82","Podkarpackie",0,0,0,0,0,0,0,0,0,0,0,0,0,0
"PL","Poland","PL","POL","PL","PL84","Podlaskie",0,0,0,0,0,0,0,0,0,0,0,0,0,0
"PL","Poland","PL","POL","PL","PL91","Warszawski stołeczny",0,0,0,0,0,0,0,0,0,0,0,0,0,0
"PL","Poland","PL","POL","PL","PL92","Mazowiecki regionalny",0,0,0,0,0,0,0,0,0,0,0,0,0,0
"PL","Poland","PL","POL","PL","PL62","Warmińsko-mazurskie",0,0,0,0,0,0,0,0,0,0,0,0,0,0
"PL","Poland","PL","POL","PL","PL63","Pomorskie",0,0,0,0,0,0,0,0,0,0,0,0,0,0
"PL","Poland","PL","POL","PL","PL52","Opolskie",0,0,0,0,0,0,0,0,0,0,0,0,0,0
"PL","Poland","PL","POL","PL","PL61","Kujawsko-pomorskie",0,0,0,0,0,0,0,0,0,0,0,0,0,0
"PT","Portugal","PT","PRT","PT","PT11","Norte",0,0,0,0,0,0,0,0,0,0,0,0,0,0
"PT","Portugal","PT","PRT","PT","PT15","Algarve",0,0,0,0,0,0,0,0,0,0,0,0,0,0
"PT","Portugal","PT","PRT","PT","PT30","Região Autónoma da Madeira",0,0,0,0,0,0,0,0,0,0,0,0,0,0
"PT","Portugal","PT","PRT","PT","PT16","Centro (PT)",0,0,0,0,0,0,0,0,0,0,0,0,0,0
"PT","Portugal","PT","PRT","PT","PT17","Área Metropolitana de Lisboa",0,0,0,0,0,0,0,0,0,0,0,0,0,0
"PT","Portugal","PT","PRT","PT","PT18","Alentejo",0,0,0,0,0,0,0,0,0,0,0,0,0,0
"PT","Portugal","PT","PRT","PT","PT20","Região Autónoma dos Açores",0,0,0,0,0,0,0,0,0,0,0,0,0,0
"RO","Romania","RO","ROU","RO","RO11","Nord-Vest",1.08286862938958e-05,4.92497790500279e-07,4.77707024465097e-06,5.91931906504206e-05,8.2889073650057e-05,0.000144712923961064,4.03291716726159e-06,0.000144712923961064,0.000116119260527472,8.13551583330578e-05,8.62785582945087e-05,8.93594386329746e-05,8.62785582945086e-05,8.62785582945085e-05
"RO","Romania","RO","ROU","RO","RO12","Centru",0.00118262838411966,7.75078595808927e-05,0.000527454276088632,0.00502823428777839,0.00652167011720415,0.0109697948986108,0.000592136127706525,0.0109697948986108,0.00915763688359732,0.00655587152684176,0.00714880961753543,0.00639063986571969,0.00714880961753543,0.00714880961753543
"RO","Romania","RO","ROU","RO","RO21","Nord-Est",0.00515425064216339,0.000641920899228714,0.00329126998013238,0.0192280434176066,0.0239662793603667,0.0379886772436835,0.00365372779268321,0.0379886772436836,0.0326990187123958,0.0240437142108265,0.0265900905953469,0.023622967656359,0.026590090595347,0.026590090595347
"RO","Romania","RO","ROU","RO","RO22","Sud-Est",0.0134908000894911,0.00151743875774838,0.00669466530367151,0.0300430823907026,0.0368368163198574,0.0559958487982541,0.00738882283518505,0.0559958487982545,0.0490165887499258,0.0367463163373796,0.040731636604362,0.0371953614394534,0.0407316366043622,0.040731636604362
"RO","Romania","RO","ROU","RO","RO31","Sud-Muntenia",0.00503459899034626,0.000623210274756138,0.00336507398922568,0.0187423117850017,0.0236033026498745,0.0375264100505912,0.00344148412152415,0.0375264100505913,0.0321825966484914,0.0235570289400667,0.0260418105230321,0.023771722864466,0.0260418105230322,0.0260418105230321
"RO","Romania","RO","ROU","RO","RO32","Bucureşti-Ilfov",0.0300570899050018,0.00481557235052928,0.0197410944674429,0.075203864537603,0.0900174881909775,0.132229815010573,0.0215218139774462,0.132229815010573,0.117808326478343,0.0900355889104851,0.10005417412917,0.0899260905197015,0.10005417412917,0.10005417412917
"RO","Romania","RO","ROU","RO","RO41","Sud-Vest Oltenia",0.000359636383756186,1.80657332177807e-05,0.000143423367749518,0.00157081578101961,0.00211328719433921,0.00361585756184195,0.000146988856337112,0.00361585756184196,0.00296447238051686,0.00209858434102088,0.0022612297331023,0.00216932206238989,0.00226122973310231,0.0022612297331023
"RO","Romania","RO","ROU","RO","RO42","Vest",0,0,0,0,0,0,0,0,0,0,0,0,0,0
"SE","Sweden","SE","SWE","SE","SE11","Stockholm",0,0,0,0,0,0,0,0,0,0,0,0,0,0
"SE","Sweden","SE","SWE","SE","SE12","Östra Mellansverige",0,0,0,0,0,0,0,0,0,0,0,0,0,0
"SE","Sweden","SE","SWE","SE","SE21","Småland med öarna",0,0,0,0,0,0,0,0,0,0,0,0,0,0
"SE","Sweden","SE","SWE","SE","SE22","Sydsverige",0,0,0,0,0,0,0,0,0,0,0,0,0,0
"SE","Sweden","SE","SWE","SE","SE23","Västsverige",0,0,0,0,0,0,0,0,0,0,0,0,0,0
"SE","Sweden","SE","SWE","SE","SE31","Norra Mellansverige",0,0,0,0,0,0,0,0,0,0,0,0,0,0
"SE","Sweden","SE","SWE","SE","SE32","Mellersta Norrland",0,0,0,0,0,0,0,0,0,0,0,0,0,0
"SE","Sweden","SE","SWE","SE","SE33","Övre Norrland",0,0,0,0,0,0,0,0,0,0,0,0,0,0
"SI","Slovenia","SI","SVN","SI","SI03","Vzhodna Slovenija",0,0,0,0,0,0,0,0,0,0,0,0,0,0
"SI","Slovenia","SI","SVN","SI","SI04","Zahodna Slovenija",0,0,0,0,0,0,0,0,0,0,0,0,0,0
"SK","Slovakia","SK","SVK","SK","SK01","Bratislavský kraj",0,0,0,0,0,0,0,0,0,0,0,0,0,0
"SK","Slovakia","SK","SVK","SK","SK02","Západné Slovensko",0,0,0,0,0,0,0,0,0,0,0,0,0,0
"SK","Slovakia","SK","SVK","SK","SK03","Stredné Slovensko",0,0,0,0,0,0,0,0,0,0,0,0,0,0
"SK","Slovakia","SK","SVK","SK","SK04","Východné Slovensko",0,0,0,0,0,0,0,0,0,0,0,0,0,0
"TR","Turkey","TR","TUR","TR","TR10","İstanbul",0,0,0,0,0,0,0,0,0,0,0,0,0,0
"TR","Turkey","TR","TUR","TR","TR21","Tekirdağ, Edirne, Kırklareli",5.21294246313029e-06,1.0424692948707e-07,1.11646521231271e-06,2.23166740087569e-05,3.1266669596246e-05,5.68128552997428e-05,1.17209869912679e-06,5.68128552997428e-05,4.4860921146443e-05,3.12666695962462e-05,3.27555990688253e-05,3.12666695962461e-05,3.27555990688251e-05,3.27555990688252e-05
"TR","Turkey","TR","TUR","TR","TR22","Balıkesir, Çanakkale",0,0,0,0,0,0,0,0,0,0,0,0,0,0
"TR","Turkey","TR","TUR","TR","TR31","İzmir",0,0,0,0,0,0,0,0,0,0,0,0,0,0
"TR","Turkey","TR","TUR","TR","TR32","Aydın, Denizli, Muğla",0,0,0,0,0,0,0,0,0,0,0,0,0,0
"TR","Turkey","TR","TUR","TR","TR33","Manisa, Afyonkarahisar, Kütahya, Uşak",0,0,0,0,0,0,0,0,0,0,0,0,0,0
"TR","Turkey","TR","TUR","TR","TR41","Bursa, Eskişehir, Bilecik",0,0,0,0,0,0,0,0,0,0,0,0,0,0
"TR","Turkey","TR","TUR","TR","TR42","Kocaeli, Sakarya, Düzce, Bolu, Yalova",0,0,0,0,0,0,0,0,0,0,0,0,0,0
"TR","Turkey","TR","TUR","TR","TR51","Ankara",0,0,0,0,0,0,0,0,0,0,0,0,0,0
"TR","Turkey","TR","TUR","TR","TR52","Konya, Karaman",0,0,0,0,0,0,0,0,0,0,0,0,0,0
"TR","Turkey","TR","TUR","TR","TR61","Antalya, Isparta, Burdur",0,0,0,0,0,0,0,0,0,0,0,0,0,0
"TR","Turkey","TR","TUR","TR","TR62","Adana, Mersin",0,0,0,0,0,0,0,0,0,0,0,0,0,0
"TR","Turkey","TR","TUR","TR","TR63","Hatay, Kahramanmaraş, Osmaniye",0,0,0,0,0,0,0,0,0,0,0,0,0,0
"TR","Turkey","TR","TUR","TR","TR71","Kırıkkale, Aksaray, Niğde, Nevşehir, Kırşehir",0,0,0,0,0,0,0,0,0,0,0,0,0,0
"TR","Turkey","TR","TUR","TR","TR72","Kayseri, Sivas, Yozgat",0,0,0,0,0,0,0,0,0,0,0,0,0,0
"TR","Turkey","TR","TUR","TR","TR81","Zonguldak, Karabük, Bartın",0,0,0,0,0,0,0,0,0,0,0,0,0,0
"TR","Turkey","TR","TUR","TR","TR82","Kastamonu, Çankırı, Sinop",0,0,0,0,0,0,0,0,0,0,0,0,0,0
"TR","Turkey","TR","TUR","TR","TR83","Samsun, Tokat, Çorum, Amasya",0,0,0,0,0,0,0,0,0,0,0,0,0,0
"TR","Turkey","TR","TUR","TR","TR90","Trabzon, Ordu, Giresun, Rize, Artvin, Gümüşhane",0,0,0,0,0,0,0,0,0,0,0,0,0,0
"TR","Turkey","TR","TUR","TR","TRA1","Erzurum, Erzincan, Bayburt",0,0,0,0,0,0,0,0,0,0,0,0,0,0
"TR","Turkey","TR","TUR","TR","TRA2","Ağrı, Kars, Iğdır, Ardahan",0,0,0,0,0,0,0,0,0,0,0,0,0,0
"TR","Turkey","TR","TUR","TR","TRB1","Malatya, Elazığ, Bingöl, Tunceli",0,0,0,0,0,0,0,0,0,0,0,0,0,0
"TR","Turkey","TR","TUR","TR","TRB2","Van, Muş, Bitlis, Hakkari",0,0,0,0,0,0,0,0,0,0,0,0,0,0
"TR","Turkey","TR","TUR","TR","TRC1","Gaziantep, Adıyaman, Kilis",0,0,0,0,0,0,0,0,0,0,0,0,0,0
"TR","Turkey","TR","TUR","TR","TRC2","Şanlıurfa, Diyarbakır",0,0,0,0,0,0,0,0,0,0,0,0,0,0
"TR","Turkey","TR","TUR","TR","TRC3","Mardin, Batman, Şırnak, Siirt",0,0,0,0,0,0,0,0,0,0,0,0,0,0
"UK","United Kingdom","GB","GBR","UK","UKC1","Tees Valley and Durham",0,0,0,0,0,0,0,0,0,0,0,0,0,0
"UK","United Kingdom","GB","GBR","UK","UKC2","Northumberland and Tyne and Wear",0,0,0,0,0,0,0,0,0,0,0,0,0,0
"UK","United Kingdom","GB","GBR","UK","UKD1","Cumbria",0,0,0,0,0,0,0,0,0,0,0,0,0,0
"UK","United Kingdom","GB","GBR","UK","UKD3","Greater Manchester",0,0,0,0,0,0,0,0,0,0,0,0,0,0
"UK","United Kingdom","GB","GBR","UK","UKD4","Lancashire",0,0,0,0,0,0,0,0,0,0,0,0,0,0
"UK","United Kingdom","GB","GBR","UK","UKD6","Cheshire",0,0,0,0,0,0,0,0,0,0,0,0,0,0
"UK","United Kingdom","GB","GBR","UK","UKD7","Merseyside",0,0,0,0,0,0,0,0,0,0,0,0,0,0
"UK","United Kingdom","GB","GBR","UK","UKE1","East Yorkshire and Northern Lincolnshire",0,0,0,0,0,0,0,0,0,0,0,0,0,0
"UK","United Kingdom","GB","GBR","UK","UKE2","North Yorkshire",0,0,0,0,0,0,0,0,0,0,0,0,0,0
"UK","United Kingdom","GB","GBR","UK","UKE3","South Yorkshire",0,0,0,0,0,0,0,0,0,0,0,0,0,0
"UK","United Kingdom","GB","GBR","UK","UKE4","West Yorkshire",0,0,0,0,0,0,0,0,0,0,0,0,0,0
"UK","United Kingdom","GB","GBR","UK","UKF1","Derbyshire and Nottinghamshire",0,0,0,0,0,0,0,0,0,0,0,0,0,0
"UK","United Kingdom","GB","GBR","UK","UKF2","Leicestershire, Rutland and Northamptonshire",0,0,0,0,0,0,0,0,0,0,0,0,0,0
"UK","United Kingdom","GB","GBR","UK","UKF3","Lincolnshire",0,0,0,0,0,0,0,0,0,0,0,0,0,0
"UK","United Kingdom","GB","GBR","UK","UKG1","Herefordshire, Worcestershire and Warwickshire",0,0,0,0,0,0,0,0,0,0,0,0,0,0
"UK","United Kingdom","GB","GBR","UK","UKG2","Shropshire and Staffordshire",0,0,0,0,0,0,0,0,0,0,0,0,0,0
"UK","United Kingdom","GB","GBR","UK","UKG3","West Midlands",0,0,0,0,0,0,0,0,0,0,0,0,0,0
"UK","United Kingdom","GB","GBR","UK","UKH1","East Anglia",0,0,0,0,0,0,0,0,0,0,0,0,0,0
"UK","United Kingdom","GB","GBR","UK","UKH2","Bedfordshire and Hertfordshire",0,0,0,0,0,0,0,0,0,0,0,0,0,0
"UK","United Kingdom","GB","GBR","UK","UKH3","Essex",0,0,0,0,0,0,0,0,0,0,0,0,0,0
"UK","United Kingdom","GB","GBR","UK","UKI3","Inner London — West",0,0,0,0,0,0,0,0,0,0,0,0,0,0
"UK","United Kingdom","GB","GBR","UK","UKI4","Inner London — East",0,0,0,0,0,0,0,0,0,0,0,0,0,0
"UK","United Kingdom","GB","GBR","UK","UKI5","Outer London — East and North East",0,0,0,0,0,0,0,0,0,0,0,0,0,0
"UK","United Kingdom","GB","GBR","UK","UKI6","Outer London — South",0,0,0,0,0,0,0,0,0,0,0,0,0,0
"UK","United Kingdom","GB","GBR","UK","UKI7","Outer London — West and North West",0,0,0,0,0,0,0,0,0,0,0,0,0,0
"UK","United Kingdom","GB","GBR","UK","UKJ1","Berkshire, Buckinghamshire and Oxfordshire",0,0,0,0,0,0,0,0,0,0,0,0,0,0
"UK","United Kingdom","GB","GBR","UK","UKJ2","Surrey, East and West Sussex",0,0,0,0,0,0,0,0,0,0,0,0,0,0
"UK","United Kingdom","GB","GBR","UK","UKJ3","Hampshire and Isle of Wight",0,0,0,0,0,0,0,0,0,0,0,0,0,0
"UK","United Kingdom","GB","GBR","UK","UKJ4","Kent",0,0,0,0,0,0,0,0,0,0,0,0,0,0
"UK","United Kingdom","GB","GBR","UK","UKK1","Gloucestershire, Wiltshire and Bristol/Bath area",0,0,0,0,0,0,0,0,0,0,0,0,0,0
"UK","United Kingdom","GB","GBR","UK","UKK2","Dorset and Somerset",0,0,0,0,0,0,0,0,0,0,0,0,0,0
"UK","United Kingdom","GB","GBR","UK","UKK3","Cornwall and Isles of Scilly",0,0,0,0,0,0,0,0,0,0,0,0,0,0
"UK","United Kingdom","GB","GBR","UK","UKK4","Devon",0,0,0,0,0,0,0,0,0,0,0,0,0,0
"UK","United Kingdom","GB","GBR","UK","UKL1","West Wales and The Valleys",0,0,0,0,0,0,0,0,0,0,0,0,0,0
"UK","United Kingdom","GB","GBR","UK","UKL2","East Wales",0,0,0,0,0,0,0,0,0,0,0,0,0,0
"UK","United Kingdom","GB","GBR","UK","UKM5","North Eastern Scotland",0,0,0,0,0,0,0,0,0,0,0,0,0,0
"UK","United Kingdom","GB","GBR","UK","UKM6","Highlands and Islands",0,0,0,0,0,0,0,0,0,0,0,0,0,0
"UK","United Kingdom","GB","GBR","UK","UKM7","Eastern Scotland",0,0,0,0,0,0,0,0,0,0,0,0,0,0
"UK","United Kingdom","GB","GBR","UK","UKM8","West Central Scotland",0,0,0,0,0,0,0,0,0,0,0,0,0,0
"UK","United Kingdom","GB","GBR","UK","UKM9","Southern Scotland",0,0,0,0,0,0,0,0,0,0,0,0,0,0
"UK","United Kingdom","GB","GBR","UK","UKN0","Northern Ireland",0,0,0,0,0,0,0,0,0,0,0,0,0,0
