"CNTR_CODE","CNTR_NAME","CNTR_CODE_iso2","CNTR_CODE_iso3","CNTR_CODE_Eurostat","A","B","C","D","E","F","G","H","I","J","K","L","M","N","O","P","Q","R","S","T","U"
"AL","Albania","AL","ALB","AL",0,0,0,0,0,0,0,0,0,0,0,0,0,0,0,0,0,0,0,0,0
"AND","Andorra","AD","AND","AD",0,0,0,0,0,0,0,0,0,0,0,0,0,0,0,0,0,0,0,0,0
"AT","Austria","AT","AUT","AT",0,0,0,0,0,0,0,0,0,0,0,0,0,0,0,0,0,0,0,0,0
"BE","Belgium","BE","BEL","BE",0,0,0,0,0,0,0,0,0,0,0,0,0,0,0,0,0,0,0,0,0
"BG","Bulgaria","BG","BGR","BG",0.0045599992398012,0.000315829695311639,0.00165712889960899,0.0074103627750783,0.00741036277507828,0.00993774374704598,0.0151111273815564,0.00144908277845637,0.0151111273815564,0.0128694945930187,0.00939041763876812,0.0103792185742128,0.0103266718713672,0.0103266718713672,0.0103266718713672,0.0103266718713672,0.0103266718713672,0.0103266718713672,0.0103266718713672,0,0
"BIH","Bosnia and Herzegovina","BA","BIH","BA",0,0,0,0,0,0,0,0,0,0,0,0,0,0,0,0,0,0,0,0,0
"CH","Switzerland","CH","CHE","CH",0,0,0,0,0,0,0,0,0,0,0,0,0,0,0,0,0,0,0,0,0
"CY","Cyprus","CY","CYP","CY",0,0,0,0,0,0,0,0,0,0,0,0,0,0,0,0,0,0,0,0,0
"CZ","Czechia","CZ","CZE","CZ",0,0,0,0,0,0,0,0,0,0,0,0,0,0,0,0,0,0,0,0,0
"DE","Germany","DE","DEU","DE",0,0,0,0,0,0,0,0,0,0,0,0,0,0,0,0,0,0,0,0,0
"DK","Denmark","DK","DNK","DK",0,0,0,0,0,0,0,0,0,0,0,0,0,0,0,0,0,0,0,0,0
"EE","Estonia","EE","EST","EE",0,0,0,0,0,0,0,0,0,0,0,0,0,0,0,0,0,0,0,0,0
"EL","Greece","GR","GRC","EL",1.13184824900299e-05,3.36643892613707e-07,3.06350196366215e-06,4.24593866695869e-05,4.2459386669587e-05,5.99041551820328e-05,0.000101029523992487,3.24853013539834e-06,0.000101029523992488,8.18669389307438e-05,5.76098896545423e-05,6.06305446112129e-05,6.1552325707915e-05,6.15523257079149e-05,6.15523257079148e-05,6.15523257079147e-05,6.15523257079148e-05,6.15523257079148e-05,6.15523257079148e-05,0,0
"ES","Spain","ES","ESP","ES",0,0,0,0,0,0,0,0,0,0,0,0,0,0,0,0,0,0,0,0,0
"FI","Finland","FI","FIN","FI",0,0,0,0,0,0,0,0,0,0,0,0,0,0,0,0,0,0,0,0,0
"FR","France","FR","FRA","FR",0,0,0,0,0,0,0,0,0,0,0,0,0,0,0,0,0,0,0,0,0
"HR","Croatia","HR","HRV","HR",0,0,0,0,0,0,0,0,0,0,0,0,0,0,0,0,0,0,0,0,0
"HU","Hungary","HU","HUN","HU",1.08078134593592e-05,2.40003989074783e-07,2.40222342103442e-06,3.546359525009e-05,3.54635952500901e-05,5.23935166392818e-05,8.81167212261146e-05,2.25945986211912e-06,8.81167212261142e-05,7.02475867591265e-05,4.91145656067408e-05,5.46566738945263e-05,5.1832891521261e-05,5.18328915212611e-05,5.18328915212612e-05,5.18328915212611e-05,5.18328915212612e-05,5.18328915212611e-05,5.18328915212611e-05,0,0
"IE","Ireland","IE","IRL","IE",0,0,0,0,0,0,0,0,0,0,0,0,0,0,0,0,0,0,0,0,0
"IS","Iceland","IS","ISL","IS",0,0,0,0,0,0,0,0,0,0,0,0,0,0,0,0,0,0,0,0,0
"IT","Italy","IT","ITA","IT",0,0,0,0,0,0,0,0,0,0,0,0,0,0,0,0,0,0,0,0,0
"LI","Liechtenstein","LI","LIE","LI",0,0,0,0,0,0,0,0,0,0,0,0,0,0,0,0,0,0,0,0,0
"LT","Lithuania","LT","LTU","LT",0,0,0,0,0,0,0,0,0,0,0,0,0,0,0,0,0,0,0,0,0
"LU","Luxembourg","LU","LUX","LU",0,0,0,0,0,0,0,0,0,0,0,0,0,0,0,0,0,0,0,0,0
"LV","Latvia","LV","LVA","LV",0,0,0,0,0,0,0,0,0,0,0,0,0,0,0,0,0,0,0,0,0
"MDA","Moldova (the Republic of)","MD","MDA","MD",0.0131660178444394,0.00097991966791592,0.00494466822639321,0.0271590391980107,0.0271590391980106,0.0373187454784242,0.0528157005690637,0.00658237915099283,0.0528157005690633,0.0456917182402592,0.03374276699506,0.0405746584336583,0.0373983152084361,0.0373983152084358,0.037398315208436,0.037398315208436,0.0373983152084359,0.0373983152084361,0.037398315208436,0,0
"ME","Montenegro","ME","MNE","ME",0,0,0,0,0,0,0,0,0,0,0,0,0,0,0,0,0,0,0,0,0
"MK","North Macedonia","MK","MKD","MK",2.58319709539261e-06,7.29864626437138e-08,8.08100983363637e-07,9.91953456065941e-06,9.91953456065945e-06,1.80722670348112e-05,2.5616677419192e-05,6.05470142296973e-07,2.5616677419192e-05,2.01089793379754e-05,1.39922993808675e-05,1.85395666796663e-05,1.45930121540183e-05,1.45930121540183e-05,1.45930121540183e-05,1.45930121540183e-05,1.45930121540183e-05,1.45930121540183e-05,1.45930121540184e-05,0,0
"MT","Malta","MT","MLT","MT",0,0,0,0,0,0,0,0,0,0,0,0,0,0,0,0,0,0,0,0,0
"NL","Netherlands (the)","NL","NLD","NL",0,0,0,0,0,0,0,0,0,0,0,0,0,0,0,0,0,0,0,0,0
"NO","Norway","NO","NOR","NO",0,0,0,0,0,0,0,0,0,0,0,0,0,0,0,0,0,0,0,0,0
"PL","Poland","PL","POL","PL",2.12576151198678e-07,1.76516268627342e-09,1.9543757169566e-08,6.51253600626998e-07,6.51253600626998e-07,9.10211739907089e-07,1.68182824540107e-06,2.92885105375973e-08,1.68182824540107e-06,1.32022779080067e-06,9.18645456308096e-07,8.96817623409025e-07,9.58084439464483e-07,9.58084439464485e-07,9.58084439464489e-07,9.58084439464487e-07,9.58084439464484e-07,9.58084439464484e-07,9.58084439464485e-07,0,0
"PT","Portugal","PT","PRT","PT",0,0,0,0,0,0,0,0,0,0,0,0,0,0,0,0,0,0,0,0,0
"RO","Romania","RO","ROU","RO",0.0303290252201347,0.00515485978711382,0.0187164563218883,0.0698282308448283,0.0698282308448282,0.0819404584635706,0.117609884463875,0.022052000597419,0.117609884463875,0.105940187365439,0.0824362595099363,0.079824133293347,0.091158676464769,0.0911586764647693,0.0911586764647694,0.0911586764647694,0.0911586764647695,0.0911586764647694,0.0911586764647691,0,0
"SE","Sweden","SE","SWE","SE",0,0,0,0,0,0,0,0,0,0,0,0,0,0,0,0,0,0,0,0,0
"SI","Slovenia","SI","SVN","SI",0,0,0,0,0,0,0,0,0,0,0,0,0,0,0,0,0,0,0,0,0
"SK","Slovakia","SK","SVK","SK",8.04445907282011e-07,3.80566338394735e-08,4.21360374447975e-07,9.27263028522945e-06,9.2726302852295e-06,1.30155699618808e-05,2.39460810778568e-05,4.24217045969408e-07,2.39460810778568e-05,1.87975685425676e-05,1.30797889967132e-05,1.29895756387989e-05,1.36413261755979e-05,1.36413261755979e-05,1.36413261755979e-05,1.36413261755979e-05,1.36413261755979e-05,1.36413261755979e-05,1.3641326175598e-05,0,0
"SRB","Serbia","RS","SRB","RS",9.72833070675105e-06,3.29395653201851e-07,3.30129881369651e-06,5.24568476876938e-05,5.24568476876937e-05,9.66940594526196e-05,0.000130268355314103,3.96977619011612e-06,0.000130268355314103,0.000103853038480515,7.26264622215655e-05,0.000102134605184591,7.66504782048178e-05,7.6650478204818e-05,7.66504782048177e-05,7.66504782048179e-05,7.66504782048181e-05,7.66504782048179e-05,7.66504782048181e-05,0,0
"TR","Turkey","TR","TUR","TR",1.03442415682052e-05,8.08271279204794e-07,7.64143398264705e-06,0.000119538515785236,0.000119538515785236,0.000163948604210274,0.000290982188161197,7.55844048061143e-06,0.000290982188161197,0.000233810652967407,0.000163948604210274,0.000163948604210275,0.000174060027747993,0.000174060027747992,0.000174060027747993,0.000174060027747993,0.000174060027747993,0.000174060027747992,0.000174060027747993,0,0
"UK","United Kingdom","GB","GBR","UK",0,0,0,0,0,0,0,0,0,0,0,0,0,0,0,0,0,0,0,0,0
