"CNTR_CODE","CNTR_NAME","CNTR_CODE_iso2","CNTR_CODE_iso3","CNTR_CODE_Eurostat","NUTS2","NAME","agr","coa.oil.gas","pro","ely.elc","ser","air.wtp.tran"
"AL","Albania","AL","ALB","AL","AL01","Veri",0,0,0,0,0,0
"AL","Albania","AL","ALB","AL","AL02","Qender",0,0,0,0,0,0
"AL","Albania","AL","ALB","AL","AL03","Jug",0,0,0,0,0,0
"AT","Austria","AT","AUT","AT","AT21","Kärnten",0,0,0,0,0,0
"AT","Austria","AT","AUT","AT","AT22","Steiermark",66.3402693053686,0.164305352516433,30.4679446760388,1.0092643955835,170.970429409686,8.6068008088007
"AT","Austria","AT","AUT","AT","AT32","Salzburg",46.0558265909029,0.295454759238166,73.443839837495,3.36494046430887,516.0747014737,24.1211724615977
"AT","Austria","AT","AUT","AT","AT33","Tirol",13.5590792165929,0.076421663087157,18.5910955576847,0.83664886404242,128.950327159782,6.05126141020698
"AT","Austria","AT","AUT","AT","AT34","Vorarlberg",0.270771607666326,0.00455347624756619,0.832673171170596,0.0272708354391386,4.58168703818228,0.229336380748442
"AT","Austria","AT","AUT","AT","AT31","Oberösterreich",152.342175805036,0.654766062102854,120.578548653732,3.97184403317609,670.122658938843,33.6411425339893
"AT","Austria","AT","AUT","AT","AT11","Burgenland",7.42021939074231,0.00799745438106987,1.9782173216754,0.0892336092687011,13.9574169480242,0.662708117201802
"AT","Austria","AT","AUT","AT","AT12","Niederösterreich",117.850239785744,0.311316754572879,64.3817160244459,2.46196178060586,398.634111268384,19.4328866638188
"AT","Austria","AT","AUT","AT","AT13","Wien",9.53206596794241,0.438944663222851,200.15165335291,12.5128157720806,1789.5592961675,78.7157224776773
"BE","Belgium","BE","BEL","BE","BE10","Région de Bruxelles-Capitale/ Brussels Hoofdstedelijk Gewest",0,0,0,0,0,0
"BE","Belgium","BE","BEL","BE","BE21","Prov. Antwerpen",0,0,0,0,0,0
"BE","Belgium","BE","BEL","BE","BE22","Prov. Limburg (BE)",0,0,0,0,0,0
"BE","Belgium","BE","BEL","BE","BE23","Prov. Oost-Vlaanderen",0,0,0,0,0,0
"BE","Belgium","BE","BEL","BE","BE33","Prov. Liège",0,0,0,0,0,0
"BE","Belgium","BE","BEL","BE","BE34","Prov. Luxembourg (BE)",0,0,0,0,0,0
"BE","Belgium","BE","BEL","BE","BE35","Prov. Namur",0,0,0,0,0,0
"BE","Belgium","BE","BEL","BE","BE31","Prov. Brabant Wallon",0,0,0,0,0,0
"BE","Belgium","BE","BEL","BE","BE32","Prov. Hainaut",0,0,0,0,0,0
"BE","Belgium","BE","BEL","BE","BE24","Prov. Vlaams-Brabant",0,0,0,0,0,0
"BE","Belgium","BE","BEL","BE","BE25","Prov. West-Vlaanderen",0,0,0,0,0,0
"BG","Bulgaria","BG","BGR","BG","BG31","Северозападен",0.24403820727606,0.00775011962504823,0.196438665720206,0.012921805050883,1.1918231546119,0.0161030700878427
"BG","Bulgaria","BG","BGR","BG","BG32","Северен централен",0.0398451761291188,0.00164104254502993,0.0433104998417036,0.00313423292292883,0.275276328262316,0.00365757465545062
"BG","Bulgaria","BG","BGR","BG","BG33","Североизточен",0,0,0,0,0,0
"BG","Bulgaria","BG","BGR","BG","BG34","Югоизточен",0,0,0,0,0,0
"BG","Bulgaria","BG","BGR","BG","BG41","Югозападен",0.280760132794634,0.10771742401453,5.17720147425231,0.698458468803557,50.4347702827403,0.618862402471826
"BG","Bulgaria","BG","BGR","BG","BG42","Южен централен",0.262444080276902,0.013278320439914,0.299130553239965,0.0149250330722676,1.50629811233264,0.0209323651291495
"CH","Switzerland","CH","CHE","CH","CH05","Ostschweiz",0,0,0,0,0,0
"CH","Switzerland","CH","CHE","CH","CH06","Zentralschweiz",0,0,0,0,0,0
"CH","Switzerland","CH","CHE","CH","CH07","Ticino",0,0,0,0,0,0
"CH","Switzerland","CH","CHE","CH","CH03","Nordwestschweiz",0,0,0,0,0,0
"CH","Switzerland","CH","CHE","CH","CH04","Zürich",0,0,0,0,0,0
"CH","Switzerland","CH","CHE","CH","CH01","Région lémanique",0,0,0,0,0,0
"CH","Switzerland","CH","CHE","CH","CH02","Espace Mittelland",0,0,0,0,0,0
"CY","Cyprus","CY","CYP","CY","CY00","Κύπρος",0,0,0,0,0,0
"CZ","Czechia","CZ","CZE","CZ","CZ01","Praha",1.67386278158798,0.212625364487545,8.4939165336152,1.59736464975221,97.7310502762378,6.05712507098306
"CZ","Czechia","CZ","CZE","CZ","CZ02","Střední Čechy",10.365777913112,0.768216706089249,18.1010240359409,0.997798546434495,75.6664778578029,5.79424797627298
"CZ","Czechia","CZ","CZE","CZ","CZ03","Jihozápad",4.1114509659703,0.185548636351677,4.50551220867908,0.288348537404704,21.1927845616969,1.58179143217449
"CZ","Czechia","CZ","CZE","CZ","CZ04","Severozápad",0,0,0,0,0,0
"CZ","Czechia","CZ","CZE","CZ","CZ05","Severovýchod",12.9841242730999,0.739503613207257,17.5773146765161,1.01237346147385,76.158177934479,5.79449432127996
"CZ","Czechia","CZ","CZE","CZ","CZ08","Moravskoslezsko",6.98556911231555,0.715166797348091,17.4617427934321,1.16537659362178,83.9406600756923,6.15754338380276
"CZ","Czechia","CZ","CZE","CZ","CZ06","Jihovýchod",14.3766632322196,0.528879336929053,13.526161839765,1.07546882415896,75.433315919251,5.40309329158291
"CZ","Czechia","CZ","CZE","CZ","CZ07","Střední Morava",10.8557585010749,0.756454623723298,17.9476483296324,1.0280800571293,77.2248131871377,5.86858604979725
"DE","Germany","DE","DEU","DE","DE13","Freiburg",0,0,0,0,0,0
"DE","Germany","DE","DEU","DE","DE12","Karlsruhe",0,0,0,0,0,0
"DE","Germany","DE","DEU","DE","DE23","Oberpfalz",0,0,0,0,0,0
"DE","Germany","DE","DEU","DE","DE14","Tübingen",0,0,0,0,0,0
"DE","Germany","DE","DEU","DE","DE21","Oberbayern",0,0,0,0,0,0
"DE","Germany","DE","DEU","DE","DE22","Niederbayern",0.00640873988089422,1.26459188509206e-05,0.0024318510839051,0.000118835631598026,0.022362614777776,0.000559593021935055
"DE","Germany","DE","DEU","DE","DE27","Schwaben",0,0,0,0,0,0
"DE","Germany","DE","DEU","DE","DE24","Oberfranken",0,0,0,0,0,0
"DE","Germany","DE","DEU","DE","DE25","Mittelfranken",0,0,0,0,0,0
"DE","Germany","DE","DEU","DE","DE26","Unterfranken",0,0,0,0,0,0
"DE","Germany","DE","DEU","DE","DE60","Hamburg",0,0,0,0,0,0
"DE","Germany","DE","DEU","DE","DE71","Darmstadt",0,0,0,0,0,0
"DE","Germany","DE","DEU","DE","DE72","Gießen",0,0,0,0,0,0
"DE","Germany","DE","DEU","DE","DE73","Kassel",0,0,0,0,0,0
"DE","Germany","DE","DEU","DE","DE80","Mecklenburg-Vorpommern",0,0,0,0,0,0
"DE","Germany","DE","DEU","DE","DE91","Braunschweig",0,0,0,0,0,0
"DE","Germany","DE","DEU","DE","DE92","Hannover",0,0,0,0,0,0
"DE","Germany","DE","DEU","DE","DE93","Lüneburg",0,0,0,0,0,0
"DE","Germany","DE","DEU","DE","DE94","Weser-Ems",0,0,0,0,0,0
"DE","Germany","DE","DEU","DE","DEA1","Düsseldorf",0,0,0,0,0,0
"DE","Germany","DE","DEU","DE","DE30","Berlin",0,0,0,0,0,0
"DE","Germany","DE","DEU","DE","DE40","Brandenburg",0.00069422782682245,2.42266472539032e-06,0.0011272111885707,0.000140140673381446,0.0214344720229217,0.000483260233122714
"DE","Germany","DE","DEU","DE","DE50","Bremen",0,0,0,0,0,0
"DE","Germany","DE","DEU","DE","DEA5","Arnsberg",0,0,0,0,0,0
"DE","Germany","DE","DEU","DE","DEB1","Koblenz",0,0,0,0,0,0
"DE","Germany","DE","DEU","DE","DEB2","Trier",0,0,0,0,0,0
"DE","Germany","DE","DEU","DE","DEB3","Rheinhessen-Pfalz",0,0,0,0,0,0
"DE","Germany","DE","DEU","DE","DEC0","Saarland",0,0,0,0,0,0
"DE","Germany","DE","DEU","DE","DED2","Dresden",0,0,0,0,0,0
"DE","Germany","DE","DEU","DE","DED4","Chemnitz",0,0,0,0,0,0
"DE","Germany","DE","DEU","DE","DED5","Leipzig",0,0,0,0,0,0
"DE","Germany","DE","DEU","DE","DEE0","Sachsen-Anhalt",0,0,0,0,0,0
"DE","Germany","DE","DEU","DE","DEF0","Schleswig-Holstein",0,0,0,0,0,0
"DE","Germany","DE","DEU","DE","DEA2","Köln",0,0,0,0,0,0
"DE","Germany","DE","DEU","DE","DEA3","Münster",0,0,0,0,0,0
"DE","Germany","DE","DEU","DE","DEA4","Detmold",0,0,0,0,0,0
"DE","Germany","DE","DEU","DE","DE11","Stuttgart",0,0,0,0,0,0
"DE","Germany","DE","DEU","DE","DEG0","Thüringen",0,0,0,0,0,0
"DK","Denmark","DK","DNK","DK","DK04","Midtjylland",0,0,0,0,0,0
"DK","Denmark","DK","DNK","DK","DK05","Nordjylland",0,0,0,0,0,0
"DK","Denmark","DK","DNK","DK","DK01","Hovedstaden",0,0,0,0,0,0
"DK","Denmark","DK","DNK","DK","DK02","Sjælland",0,0,0,0,0,0
"DK","Denmark","DK","DNK","DK","DK03","Syddanmark",0,0,0,0,0,0
"EE","Estonia","EE","EST","EE","EE00","Eesti",0,0,0,0,0,0
"EL","Greece","GR","GRC","EL","EL30","Aττική",0,0,0,0,0,0
"EL","Greece","GR","GRC","EL","EL41","Βόρειο Αιγαίο",0,0,0,0,0,0
"EL","Greece","GR","GRC","EL","EL42","Νότιο Αιγαίο",0,0,0,0,0,0
"EL","Greece","GR","GRC","EL","EL43","Κρήτη",0,0,0,0,0,0
"EL","Greece","GR","GRC","EL","EL51","Aνατολική Μακεδονία, Θράκη",0,0,0,0,0,0
"EL","Greece","GR","GRC","EL","EL52","Κεντρική Μακεδονία",0,0,0,0,0,0
"EL","Greece","GR","GRC","EL","EL53","Δυτική Μακεδονία",0,0,0,0,0,0
"EL","Greece","GR","GRC","EL","EL64","Στερεά Ελλάδα",0,0,0,0,0,0
"EL","Greece","GR","GRC","EL","EL65","Πελοπόννησος",0,0,0,0,0,0
"EL","Greece","GR","GRC","EL","EL61","Θεσσαλία",0,0,0,0,0,0
"EL","Greece","GR","GRC","EL","EL62","Ιόνια Νησιά",0,0,0,0,0,0
"EL","Greece","GR","GRC","EL","EL63","Δυτική Ελλάδα",0,0,0,0,0,0
"EL","Greece","GR","GRC","EL","EL54","Ήπειρος",0,0,0,0,0,0
"ES","Spain","ES","ESP","ES","ES11","Galicia",0,0,0,0,0,0
"ES","Spain","ES","ESP","ES","ES12","Principado de Asturias",0,0,0,0,0,0
"ES","Spain","ES","ESP","ES","ES13","Cantabria",0,0,0,0,0,0
"ES","Spain","ES","ESP","ES","ES21","País Vasco",0,0,0,0,0,0
"ES","Spain","ES","ESP","ES","ES22","Comunidad Foral de Navarra",0,0,0,0,0,0
"ES","Spain","ES","ESP","ES","ES23","La Rioja",0,0,0,0,0,0
"ES","Spain","ES","ESP","ES","ES24","Aragón",0,0,0,0,0,0
"ES","Spain","ES","ESP","ES","ES51","Cataluña",0,0,0,0,0,0
"ES","Spain","ES","ESP","ES","ES52","Comunitat Valenciana",0,0,0,0,0,0
"ES","Spain","ES","ESP","ES","ES53","Illes Balears",0,0,0,0,0,0
"ES","Spain","ES","ESP","ES","ES61","Andalucía",0,0,0,0,0,0
"ES","Spain","ES","ESP","ES","ES62","Región de Murcia",0,0,0,0,0,0
"ES","Spain","ES","ESP","ES","ES63","Ciudad de Ceuta",0,0,0,0,0,0
"ES","Spain","ES","ESP","ES","ES64","Ciudad de Melilla",0,0,0,0,0,0
"ES","Spain","ES","ESP","ES","ES70","Canarias",0,0,0,0,0,0
"ES","Spain","ES","ESP","ES","ES43","Extremadura",0,0,0,0,0,0
"ES","Spain","ES","ESP","ES","ES30","Comunidad de Madrid",0,0,0,0,0,0
"ES","Spain","ES","ESP","ES","ES41","Castilla y León",0,0,0,0,0,0
"ES","Spain","ES","ESP","ES","ES42","Castilla-La Mancha",0,0,0,0,0,0
"FI","Finland","FI","FIN","FI","FI19","Länsi-Suomi",0,0,0,0,0,0
"FI","Finland","FI","FIN","FI","FI20","Åland",0,0,0,0,0,0
"FI","Finland","FI","FIN","FI","FI1B","Helsinki-Uusimaa",0,0,0,0,0,0
"FI","Finland","FI","FIN","FI","FI1C","Etelä-Suomi",0,0,0,0,0,0
"FI","Finland","FI","FIN","FI","FI1D","Pohjois- ja Itä-Suomi",0,0,0,0,0,0
"FR","France","FR","FRA","FR","FRB0","Centre — Val de Loire",0,0,0,0,0,0
"FR","France","FR","FRA","FR","FRD2","Haute-Normandie",0,0,0,0,0,0
"FR","France","FR","FRA","FR","FRC1","Bourgogne",0,0,0,0,0,0
"FR","France","FR","FRA","FR","FRC2","Franche-Comté",0,0,0,0,0,0
"FR","France","FR","FRA","FR","FRD1","Basse-Normandie",0,0,0,0,0,0
"FR","France","FR","FRA","FR","FRF2","Champagne-Ardenne",0,0,0,0,0,0
"FR","France","FR","FRA","FR","FRE1","Nord-Pas de Calais",0,0,0,0,0,0
"FR","France","FR","FRA","FR","FRE2","Picardie",0,0,0,0,0,0
"FR","France","FR","FRA","FR","FRF1","Alsace",0,0,0,0,0,0
"FR","France","FR","FRA","FR","FR10","Ile-de-France",0,0,0,0,0,0
"FR","France","FR","FRA","FR","FRI2","Limousin",0,0,0,0,0,0
"FR","France","FR","FRA","FR","FRI3","Poitou-Charentes",0,0,0,0,0,0
"FR","France","FR","FRA","FR","FRJ1","Languedoc-Roussillon",0,0,0,0,0,0
"FR","France","FR","FRA","FR","FRJ2","Midi-Pyrénées",0,0,0,0,0,0
"FR","France","FR","FRA","FR","FRK1","Auvergne",0,0,0,0,0,0
"FR","France","FR","FRA","FR","FRK2","Rhône-Alpes",0,0,0,0,0,0
"FR","France","FR","FRA","FR","FRL0","Provence-Alpes-Côte d’Azur",0,0,0,0,0,0
"FR","France","FR","FRA","FR","FRM0","Corse",0,0,0,0,0,0
"FR","France","FR","FRA","FR","FRI1","Aquitaine",0,0,0,0,0,0
"FR","France","FR","FRA","FR","FRF3","Lorraine",0,0,0,0,0,0
"FR","France","FR","FRA","FR","FRG0","Pays de la Loire",0,0,0,0,0,0
"FR","France","FR","FRA","FR","FRH0","Bretagne",0,0,0,0,0,0
"HR","Croatia","HR","HRV","HR","HR02","Panonska Hrvatska",15.3138149993535,0.0413877009084509,11.8580443308513,0.502467569339301,65.8029193667599,3.77381681149857
"HR","Croatia","HR","HRV","HR","HR03","Jadranska Hrvatska",0,0,0,0,0,0
"HR","Croatia","HR","HRV","HR","HR05","Grad Zagreb",0,0,0,0,0,0
"HR","Croatia","HR","HRV","HR","HR06","Sjeverna Hrvatska",2.50836756873569,0.0103742963511828,2.44848181305289,0.0790112677128619,11.2183357552677,0.667629917954873
"HU","Hungary","HU","HUN","HU","HU12","Pest",15.0572924231119,0.127131364974589,17.9781695360902,0.774784026793009,116.328339027822,4.17931795627027
"HU","Hungary","HU","HUN","HU","HU31","Észak-Magyarország",23.4757291678639,0.184295510319675,22.5794808766134,0.528911114207867,91.5228162245119,3.6980858872515
"HU","Hungary","HU","HUN","HU","HU21","Közép-Dunántúl",15.178148678578,0.111711344528213,13.2968431842502,0.253473354048372,46.834628560731,1.97974679652746
"HU","Hungary","HU","HUN","HU","HU22","Nyugat-Dunántúl",20.8579266337441,0.165501006228409,19.6976364309534,0.376542361124406,69.3719955635766,2.92686021788652
"HU","Hungary","HU","HUN","HU","HU23","Dél-Dunántúl",8.36732794436735,0.0191048979936453,2.62922847724651,0.0991751997317253,15.7866263686345,0.597500998388457
"HU","Hungary","HU","HUN","HU","HU11","Budapest",2.60612413843732,0.137404755765308,26.9998900443413,2.13707229822282,293.474775097855,9.61641383592907
"HU","Hungary","HU","HUN","HU","HU32","Észak-Alföld",52.7079655622618,0.170058145887729,21.4078512047585,0.560548495450683,96.6689355342983,3.89637471055123
"HU","Hungary","HU","HUN","HU","HU33","Dél-Alföld",84.1644484290267,0.169824059889832,25.4088745220397,1.22060105539533,185.285811308247,6.7251665081064
"IE","Ireland","IE","IRL","IE","IE04","Northern and Western",0,0,0,0,0,0
"IE","Ireland","IE","IRL","IE","IE05","Southern",0,0,0,0,0,0
"IE","Ireland","IE","IRL","IE","IE06","Eastern and Midland",0,0,0,0,0,0
"IS","Iceland","IS","ISL","IS","IS00","Ísland",0,0,0,0,0,0
"IT","Italy","IT","ITA","IT","ITC3","Liguria",0,0,0,0,0,0
"IT","Italy","IT","ITA","IT","ITC4","Lombardia",0,0,0,0,0,0
"IT","Italy","IT","ITA","IT","ITF3","Campania",0,0,0,0,0,0
"IT","Italy","IT","ITA","IT","ITF4","Puglia",0,0,0,0,0,0
"IT","Italy","IT","ITA","IT","ITF1","Abruzzo",0,0,0,0,0,0
"IT","Italy","IT","ITA","IT","ITF2","Molise",0,0,0,0,0,0
"IT","Italy","IT","ITA","IT","ITG1","Sicilia",0,0,0,0,0,0
"IT","Italy","IT","ITA","IT","ITG2","Sardegna",0,0,0,0,0,0
"IT","Italy","IT","ITA","IT","ITF5","Basilicata",0,0,0,0,0,0
"IT","Italy","IT","ITA","IT","ITF6","Calabria",0,0,0,0,0,0
"IT","Italy","IT","ITA","IT","ITH3","Veneto",0,0,0,0,0,0
"IT","Italy","IT","ITA","IT","ITH4","Friuli-Venezia Giulia",0,0,0,0,0,0
"IT","Italy","IT","ITA","IT","ITH5","Emilia-Romagna",0,0,0,0,0,0
"IT","Italy","IT","ITA","IT","ITI1","Toscana",0,0,0,0,0,0
"IT","Italy","IT","ITA","IT","ITI2","Umbria",0,0,0,0,0,0
"IT","Italy","IT","ITA","IT","ITI3","Marche",0,0,0,0,0,0
"IT","Italy","IT","ITA","IT","ITI4","Lazio",0,0,0,0,0,0
"IT","Italy","IT","ITA","IT","ITH1","Provincia Autonoma di Bolzano/Bozen",0,0,0,0,0,0
"IT","Italy","IT","ITA","IT","ITH2","Provincia Autonoma di Trento",0,0,0,0,0,0
"IT","Italy","IT","ITA","IT","ITC1","Piemonte",0,0,0,0,0,0
"IT","Italy","IT","ITA","IT","ITC2","Valle d’Aosta/Vallée d’Aoste",0,0,0,0,0,0
"LT","Lithuania","LT","LTU","LT","LT01","Sostinės regionas",0,0,0,0,0,0
"LT","Lithuania","LT","LTU","LT","LT02","Vidurio ir vakarų Lietuvos regionas",0,0,0,0,0,0
"LU","Luxembourg","LU","LUX","LU","LU00","Luxembourg",0,0,0,0,0,0
"LV","Latvia","LV","LVA","LV","LV00","Latvija",0,0,0,0,0,0
"ME","Montenegro","ME","MNE","ME","ME00","Црна Гора",0,0,0,0,0,0
"MK","North Macedonia","MK","MKD","MK","MK00","Северна Македонија",0,0,0,0,0,0
"MT","Malta","MT","MLT","MT","MT00","Malta",0,0,0,0,0,0
"NL","Netherlands (the)","NL","NLD","NL","NL12","Friesland (NL)",0,0,0,0,0,0
"NL","Netherlands (the)","NL","NLD","NL","NL23","Flevoland",0,0,0,0,0,0
"NL","Netherlands (the)","NL","NLD","NL","NL13","Drenthe",0,0,0,0,0,0
"NL","Netherlands (the)","NL","NLD","NL","NL21","Overijssel",0,0,0,0,0,0
"NL","Netherlands (the)","NL","NLD","NL","NL22","Gelderland",0,0,0,0,0,0
"NL","Netherlands (the)","NL","NLD","NL","NL34","Zeeland",0,0,0,0,0,0
"NL","Netherlands (the)","NL","NLD","NL","NL31","Utrecht",0,0,0,0,0,0
"NL","Netherlands (the)","NL","NLD","NL","NL32","Noord-Holland",0,0,0,0,0,0
"NL","Netherlands (the)","NL","NLD","NL","NL33","Zuid-Holland",0,0,0,0,0,0
"NL","Netherlands (the)","NL","NLD","NL","NL11","Groningen",0,0,0,0,0,0
"NL","Netherlands (the)","NL","NLD","NL","NL41","Noord-Brabant",0,0,0,0,0,0
"NL","Netherlands (the)","NL","NLD","NL","NL42","Limburg (NL)",0,0,0,0,0,0
"NO","Norway","NO","NOR","NO","NO07","Nord-Norge",0,0,0,0,0,0
"NO","Norway","NO","NOR","NO","NO08","Oslo og Viken",0,0,0,0,0,0
"NO","Norway","NO","NOR","NO","NO02","Innlandet",0,0,0,0,0,0
"NO","Norway","NO","NOR","NO","NO06","Trøndelag",0,0,0,0,0,0
"NO","Norway","NO","NOR","NO","NO09","Agder og Sør-Østlandet",0,0,0,0,0,0
"NO","Norway","NO","NOR","NO","NO0A","Vestlandet",0,0,0,0,0,0
"PL","Poland","PL","POL","PL","PL21","Małopolskie",7.70927000583608,0.933267695176472,21.3219082949226,2.67049231619449,81.3870865993549,18.5858162246441
"PL","Poland","PL","POL","PL","PL22","Śląskie",3.15260921954471,0.569937199491745,11.0207138451523,0.613101082531006,21.1291035159553,5.47381673117864
"PL","Poland","PL","POL","PL","PL41","Wielkopolskie",18.5096437167209,1.19234171006198,24.2506638559708,1.88084349796734,61.357571341727,15.083138719197
"PL","Poland","PL","POL","PL","PL42","Zachodniopomorskie",0.46701308025709,0.132603026307468,3.10827675049786,0.420112443584697,12.6832683329736,2.86447064307339
"PL","Poland","PL","POL","PL","PL43","Lubuskie",4.11109066209597,0.229474212071705,4.46022909052104,0.256054199909474,8.85801690652447,2.30271583800447
"PL","Poland","PL","POL","PL","PL51","Dolnośląskie",3.86682312593131,0.784677674826974,17.1469908844192,1.85014554922469,57.2690054990539,13.3125537103027
"PL","Poland","PL","POL","PL","PL71","Łódzkie",3.7886946101793,0.103881589595742,2.01114998655897,0.110164059920144,3.91186325916156,1.04049574992585
"PL","Poland","PL","POL","PL","PL72","Świętokrzyskie",5.31320173947433,0.12560604720904,2.51624397267465,0.175613797232604,5.94246982252115,1.51374904178025
"PL","Poland","PL","POL","PL","PL81","Lubelskie",8.30624367318817,0.174983157136435,3.53767552290026,0.260296016523608,8.74659070322815,2.21338031544418
"PL","Poland","PL","POL","PL","PL82","Podkarpackie",6.37721647697113,0.575706116737262,11.4151131119585,0.760606851869613,25.4073295599902,6.39314799387953
"PL","Poland","PL","POL","PL","PL84","Podlaskie",0.692895698210228,0.0118512639411696,0.250587473429836,0.0231128462401303,0.750327491599122,0.183538563266378
"PL","Poland","PL","POL","PL","PL91","Warszawski stołeczny",7.23597913669973,1.49087298279586,41.5477690987364,8.0845942557003,236.862933757327,51.5620952916173
"PL","Poland","PL","POL","PL","PL92","Mazowiecki regionalny",12.8836488195999,0.286494889297199,5.74343673573722,0.4019934462188,13.6194326850557,3.47331604396051
"PL","Poland","PL","POL","PL","PL62","Warmińsko-mazurskie",0.0805610807701003,0.00186847447814494,0.038833673898739,0.00332573519846107,0.108440095773624,0.0266439255690279
"PL","Poland","PL","POL","PL","PL63","Pomorskie",1.72702110871019,0.0771370507285663,1.51466922958654,0.0936031664369666,3.19994720167988,0.822923092686286
"PL","Poland","PL","POL","PL","PL52","Opolskie",2.17227487927661,0.142495546590823,2.79758112340435,0.173565378263819,5.8962496851459,1.5074962802894
"PL","Poland","PL","POL","PL","PL61","Kujawsko-pomorskie",4.22181340236923,0.181094442994219,3.61833396700649,0.251369653074594,8.40406881705205,2.11645377589947
"PT","Portugal","PT","PRT","PT","PT11","Norte",0,0,0,0,0,0
"PT","Portugal","PT","PRT","PT","PT15","Algarve",0,0,0,0,0,0
"PT","Portugal","PT","PRT","PT","PT30","Região Autónoma da Madeira",0,0,0,0,0,0
"PT","Portugal","PT","PRT","PT","PT16","Centro (PT)",0,0,0,0,0,0
"PT","Portugal","PT","PRT","PT","PT17","Área Metropolitana de Lisboa",0,0,0,0,0,0
"PT","Portugal","PT","PRT","PT","PT18","Alentejo",0,0,0,0,0,0
"PT","Portugal","PT","PRT","PT","PT20","Região Autónoma dos Açores",0,0,0,0,0,0
"RO","Romania","RO","ROU","RO","RO11","Nord-Vest",0.0341054824636091,0.0015468304147407,0.0222545644197971,0.00146438318107446,0.0866998375409314,0.00454267980053705
"RO","Romania","RO","ROU","RO","RO12","Centru",0,0,0,0,0,0
"RO","Romania","RO","ROU","RO","RO21","Nord-Est",0,0,0,0,0,0
"RO","Romania","RO","ROU","RO","RO22","Sud-Est",6.06074165721017,0.501709375810543,6.94464524005058,0.412629029561068,24.5514217767993,1.30232116450658
"RO","Romania","RO","ROU","RO","RO31","Sud-Muntenia",4.35509276193403,0.0700227518464122,1.09144840132435,0.0847639733987953,5.03863512900315,0.266643036933088
"RO","Romania","RO","ROU","RO","RO32","Bucureşti-Ilfov",0.258420238099046,0.0449340337603705,0.763478006062264,0.0707181106046275,4.00567411051921,0.186091348041082
"RO","Romania","RO","ROU","RO","RO41","Sud-Vest Oltenia",4.16876974697529,0.118502802643298,1.62266793681018,0.0918264183818631,5.61094704234037,0.316864998913859
"RO","Romania","RO","ROU","RO","RO42","Vest",1.4837800414279,0.0480635356395992,0.773364185396271,0.0647237703761089,3.74737383748873,0.185236149761035
"SE","Sweden","SE","SWE","SE","SE11","Stockholm",0,0,0,0,0,0
"SE","Sweden","SE","SWE","SE","SE12","Östra Mellansverige",0,0,0,0,0,0
"SE","Sweden","SE","SWE","SE","SE21","Småland med öarna",0,0,0,0,0,0
"SE","Sweden","SE","SWE","SE","SE22","Sydsverige",0,0,0,0,0,0
"SE","Sweden","SE","SWE","SE","SE23","Västsverige",0,0,0,0,0,0
"SE","Sweden","SE","SWE","SE","SE31","Norra Mellansverige",0,0,0,0,0,0
"SE","Sweden","SE","SWE","SE","SE32","Mellersta Norrland",0,0,0,0,0,0
"SE","Sweden","SE","SWE","SE","SE33","Övre Norrland",0,0,0,0,0,0
"SI","Slovenia","SI","SVN","SI","SI03","Vzhodna Slovenija",0,0,0,0,0,0
"SI","Slovenia","SI","SVN","SI","SI04","Zahodna Slovenija",0,0,0,0,0,0
"SK","Slovakia","SK","SVK","SK","SK01","Bratislavský kraj",1.3020133908623,0.112003290594102,3.65182878534175,0.705591861954159,22.4233311206436,1.21923876860786
"SK","Slovakia","SK","SVK","SK","SK02","Západné Slovensko",38.6713581920159,1.94534600317368,53.2348807948428,4.28724120054276,160.621564156182,9.65831281121423
"SK","Slovakia","SK","SVK","SK","SK03","Stredné Slovensko",26.6601155747291,0.999896259586876,28.8658313369262,3.35308562059906,116.19931804885,6.68389871515408
"SK","Slovakia","SK","SVK","SK","SK04","Východné Slovensko",16.9441953624575,0.781778468771068,22.7439967917281,2.76865358720111,94.8251529807079,5.4154365242723
"TR","Turkey","TR","TUR","TR","TR10","İstanbul",0,0,0,0,0,0
"TR","Turkey","TR","TUR","TR","TR21","Tekirdağ, Edirne, Kırklareli",0,0,0,0,0,0
"TR","Turkey","TR","TUR","TR","TR22","Balıkesir, Çanakkale",0,0,0,0,0,0
"TR","Turkey","TR","TUR","TR","TR31","İzmir",0,0,0,0,0,0
"TR","Turkey","TR","TUR","TR","TR32","Aydın, Denizli, Muğla",0,0,0,0,0,0
"TR","Turkey","TR","TUR","TR","TR33","Manisa, Afyonkarahisar, Kütahya, Uşak",0,0,0,0,0,0
"TR","Turkey","TR","TUR","TR","TR41","Bursa, Eskişehir, Bilecik",0,0,0,0,0,0
"TR","Turkey","TR","TUR","TR","TR42","Kocaeli, Sakarya, Düzce, Bolu, Yalova",0,0,0,0,0,0
"TR","Turkey","TR","TUR","TR","TR51","Ankara",0,0,0,0,0,0
"TR","Turkey","TR","TUR","TR","TR52","Konya, Karaman",0,0,0,0,0,0
"TR","Turkey","TR","TUR","TR","TR61","Antalya, Isparta, Burdur",0,0,0,0,0,0
"TR","Turkey","TR","TUR","TR","TR62","Adana, Mersin",0,0,0,0,0,0
"TR","Turkey","TR","TUR","TR","TR63","Hatay, Kahramanmaraş, Osmaniye",0,0,0,0,0,0
"TR","Turkey","TR","TUR","TR","TR71","Kırıkkale, Aksaray, Niğde, Nevşehir, Kırşehir",0,0,0,0,0,0
"TR","Turkey","TR","TUR","TR","TR72","Kayseri, Sivas, Yozgat",0,0,0,0,0,0
"TR","Turkey","TR","TUR","TR","TR81","Zonguldak, Karabük, Bartın",0,0,0,0,0,0
"TR","Turkey","TR","TUR","TR","TR82","Kastamonu, Çankırı, Sinop",0,0,0,0,0,0
"TR","Turkey","TR","TUR","TR","TR83","Samsun, Tokat, Çorum, Amasya",0,0,0,0,0,0
"TR","Turkey","TR","TUR","TR","TR90","Trabzon, Ordu, Giresun, Rize, Artvin, Gümüşhane",0,0,0,0,0,0
"TR","Turkey","TR","TUR","TR","TRA1","Erzurum, Erzincan, Bayburt",0,0,0,0,0,0
"TR","Turkey","TR","TUR","TR","TRA2","Ağrı, Kars, Iğdır, Ardahan",0,0,0,0,0,0
"TR","Turkey","TR","TUR","TR","TRB1","Malatya, Elazığ, Bingöl, Tunceli",0,0,0,0,0,0
"TR","Turkey","TR","TUR","TR","TRB2","Van, Muş, Bitlis, Hakkari",0,0,0,0,0,0
"TR","Turkey","TR","TUR","TR","TRC1","Gaziantep, Adıyaman, Kilis",0,0,0,0,0,0
"TR","Turkey","TR","TUR","TR","TRC2","Şanlıurfa, Diyarbakır",0,0,0,0,0,0
"TR","Turkey","TR","TUR","TR","TRC3","Mardin, Batman, Şırnak, Siirt",0,0,0,0,0,0
"UK","United Kingdom","GB","GBR","UK","UKC1","Tees Valley and Durham",0,0,0,0,0,0
"UK","United Kingdom","GB","GBR","UK","UKC2","Northumberland and Tyne and Wear",0,0,0,0,0,0
"UK","United Kingdom","GB","GBR","UK","UKD1","Cumbria",0,0,0,0,0,0
"UK","United Kingdom","GB","GBR","UK","UKD3","Greater Manchester",0,0,0,0,0,0
"UK","United Kingdom","GB","GBR","UK","UKD4","Lancashire",0,0,0,0,0,0
"UK","United Kingdom","GB","GBR","UK","UKD6","Cheshire",0,0,0,0,0,0
"UK","United Kingdom","GB","GBR","UK","UKD7","Merseyside",0,0,0,0,0,0
"UK","United Kingdom","GB","GBR","UK","UKE1","East Yorkshire and Northern Lincolnshire",0,0,0,0,0,0
"UK","United Kingdom","GB","GBR","UK","UKE2","North Yorkshire",0,0,0,0,0,0
"UK","United Kingdom","GB","GBR","UK","UKE3","South Yorkshire",0,0,0,0,0,0
"UK","United Kingdom","GB","GBR","UK","UKE4","West Yorkshire",0,0,0,0,0,0
"UK","United Kingdom","GB","GBR","UK","UKF1","Derbyshire and Nottinghamshire",0,0,0,0,0,0
"UK","United Kingdom","GB","GBR","UK","UKF2","Leicestershire, Rutland and Northamptonshire",0,0,0,0,0,0
"UK","United Kingdom","GB","GBR","UK","UKF3","Lincolnshire",0,0,0,0,0,0
"UK","United Kingdom","GB","GBR","UK","UKG1","Herefordshire, Worcestershire and Warwickshire",0,0,0,0,0,0
"UK","United Kingdom","GB","GBR","UK","UKG2","Shropshire and Staffordshire",0,0,0,0,0,0
"UK","United Kingdom","GB","GBR","UK","UKG3","West Midlands",0,0,0,0,0,0
"UK","United Kingdom","GB","GBR","UK","UKH1","East Anglia",0,0,0,0,0,0
"UK","United Kingdom","GB","GBR","UK","UKH2","Bedfordshire and Hertfordshire",0,0,0,0,0,0
"UK","United Kingdom","GB","GBR","UK","UKH3","Essex",0,0,0,0,0,0
"UK","United Kingdom","GB","GBR","UK","UKI3","Inner London — West",0,0,0,0,0,0
"UK","United Kingdom","GB","GBR","UK","UKI4","Inner London — East",0,0,0,0,0,0
"UK","United Kingdom","GB","GBR","UK","UKI5","Outer London — East and North East",0,0,0,0,0,0
"UK","United Kingdom","GB","GBR","UK","UKI6","Outer London — South",0,0,0,0,0,0
"UK","United Kingdom","GB","GBR","UK","UKI7","Outer London — West and North West",0,0,0,0,0,0
"UK","United Kingdom","GB","GBR","UK","UKJ1","Berkshire, Buckinghamshire and Oxfordshire",0,0,0,0,0,0
"UK","United Kingdom","GB","GBR","UK","UKJ2","Surrey, East and West Sussex",0,0,0,0,0,0
"UK","United Kingdom","GB","GBR","UK","UKJ3","Hampshire and Isle of Wight",0,0,0,0,0,0
"UK","United Kingdom","GB","GBR","UK","UKJ4","Kent",0,0,0,0,0,0
"UK","United Kingdom","GB","GBR","UK","UKK1","Gloucestershire, Wiltshire and Bristol/Bath area",0,0,0,0,0,0
"UK","United Kingdom","GB","GBR","UK","UKK2","Dorset and Somerset",0,0,0,0,0,0
"UK","United Kingdom","GB","GBR","UK","UKK3","Cornwall and Isles of Scilly",0,0,0,0,0,0
"UK","United Kingdom","GB","GBR","UK","UKK4","Devon",0,0,0,0,0,0
"UK","United Kingdom","GB","GBR","UK","UKL1","West Wales and The Valleys",0,0,0,0,0,0
"UK","United Kingdom","GB","GBR","UK","UKL2","East Wales",0,0,0,0,0,0
"UK","United Kingdom","GB","GBR","UK","UKM5","North Eastern Scotland",0,0,0,0,0,0
"UK","United Kingdom","GB","GBR","UK","UKM6","Highlands and Islands",0,0,0,0,0,0
"UK","United Kingdom","GB","GBR","UK","UKM7","Eastern Scotland",0,0,0,0,0,0
"UK","United Kingdom","GB","GBR","UK","UKM8","West Central Scotland",0,0,0,0,0,0
"UK","United Kingdom","GB","GBR","UK","UKM9","Southern Scotland",0,0,0,0,0,0
"UK","United Kingdom","GB","GBR","UK","UKN0","Northern Ireland",0,0,0,0,0,0
